NYC Facilities
…
table(mammography_facilities$state)

## 
##  AE  AK  AL  AP  AR  AS  AZ  CA  CO  CT  DC  DE  FL  GA  GU  HI  IA  ID  IL  IN 
##   6  30 136   6  75   1 164 746 129 112  16  30 602 263   6  37 145  46 335 182 
##  KS  KY  LA  MA  MD  ME  MI  MN  MO  MS  MT  NC  ND  NE  NH  NJ  NM  NV  NY  OH 
## 110 146 143 164 133  49 274 204 162  99  44 261  47  91  42 235  46  64 549 334 
##  OK  OR  PA  PR  RI  SC  SD  TN  TX  UT  VA  VI  VT  WA  WI  WV  WY 
## 118 105 355 159  35 109  48 187 546  63 200   4  16 148 218  66  28

mammography_facilities_ny <- mammography_facilities %>%
  filter(state == "NY")
mammography_facilities_ny

## # A tibble: 549 x 9
##    facility_name    address1  address2 address3 city  state zip_code phone fax  
##    <chr>            <chr>     <chr>    <chr>    <chr> <chr> <chr>    <chr> <chr>
##  1 A. O. Fox Memor One Nort <NA>     <NA>     Oneo NY    13820    6074 6074
##  2 Adirondack Heal 2233 Sta <NA>     <NA>     Sara NY    12983    5188 5188
##  3 Adirondack Heal 7 Stetso <NA>     <NA>     Tupp NY    12986    5188 5188
##  4 Advantage Radio 3049 Oce suit 303 <NA>     BROO NY    11235    7182 7182
##  5 Albany Medical  25 Hacke <NA>     <NA>     Alba NY    12208    5182 5182
##  6 Alice Gorman Im 139 Fiel <NA>     <NA>     Onei NY    13421    3153 3153
##  7 Alice Hyde Medi 133 Park <NA>     <NA>     Malo NY    12953    5184 5184
##  8 Allium Diagnost 345 Sain <NA>     <NA>     Ridg NY    11385    7184 7183
##  9 Amboy Medical P 1161 Vic <NA>     <NA>     Stat NY    10301    7188 7182
## 10 Amherst Radiolo 2828 Mai <NA>     <NA>     Buff NY    14214    7168 7168
## #  with 539 more rows
…
mammography_facilities_nyc <- mammography_facilities_ny %>%
  filter(city %in% c("Staten Isalnd","Staten Island","brooklyn","Brooklyn", "BROOKLYN", "Bronx","Jamaica","Jackson Heights","Richmond Hill","Rego Park","Ozone Park","NEW YORK","New York","Long Island City","Laurelton","Kew Gardens","Howard Beach","Glendale","Forest Hills","Flushing","Far Rockaway","Elmhurst","Cambria Heights","Bayside","Astoria"))
mammography_facilities_nyc

## # A tibble: 193 x 9
##    facility_name   address1   address2 address3 city  state zip_code phone fax  
##    <chr>           <chr>      <chr>    <chr>    <chr> <chr> <chr>    <chr> <chr>
##  1 Advantage Radi 3049 Ocea suit 303 <NA>     BROO NY    11235    7182 7182
##  2 Amboy Medical  1161 Vict <NA>     <NA>     Stat NY    10301    7188 7182
##  3 Apollo Imaging 40-36 74t <NA>     <NA>     Elmh NY    11373    7184 7183
##  4 Apollo Medical 170-10 Ce <NA>     <NA>     Jama NY    11432    7182 9144
##  5 Avon Foundatio 1130 St.  <NA>     <NA>     New  NY    10032    2123 2123
##  6 Barbara Edelst 1045 Park <NA>     <NA>     New  NY    10028    2128 2128
##  7 Bay Ridge Medi 7117 - 71 <NA>     <NA>     Broo NY    11228    7182 7187
##  8 Bay Ridge Medi 9920 4th  <NA>     <NA>     Broo NY    11209    7189 7187
##  9 Bay Ridge Medi 7601 4th  <NA>     <NA>     Broo NY    11209    7182 7187
## 10 Beekman Radiol 342 E 49t <NA>     <NA>     New  NY    10017    2125 2125
## #  with 183 more rows
…
